Carregamento Rápido de Dados do Kaggle - Netflix Dataset
…
ts_netflix_json <- df_monthly_json %>%
  as_tsibble(key = c(type), index = year_month)

cat("Conversão para tsibble concluída!\n")

Conversão para tsibble concluída!

print("Tsibble Netflix (Parquet):")

[1] "Tsibble Netflix (Parquet):"

print(ts_netflix_parquet)

# A tsibble: 193 x 6 [1D]
# Key:       type [2]
   year_month type  total_titles avg_release_year unique_countries id           
   <date>     <chr>        <int>            <dbl>            <int> <chr>        
 1 2008-01-01 Movie            1            2006                 1 2008-01-01_M…
 2 2009-05-01 Movie            1            2007                 1 2009-05-01_M…
 3 2009-11-01 Movie            1            2009                 1 2009-11-01_M…
 4 2010-11-01 Movie            1            1987                 1 2010-11-01_M…
 5 2011-05-01 Movie            1            2010                 1 2011-05-01_M…
 6 2011-09-01 Movie            1            2000                 1 2011-09-01_M…
 7 2011-10-01 Movie           11            1989.                1 2011-10-01_M…
 8 2012-02-01 Movie            1            2011                 1 2012-02-01_M…
 9 2012-11-01 Movie            1            2012                 1 2012-11-01_M…
10 2012-12-01 Movie            1            2010                 1 2012-12-01_M…
# ℹ 183 more rows

cat("\n Tendências no Netflix:\n")

 Tendências no Netflix:

print(ts_netflix_parquet %>% 
      group_by(type) %>% 
      summarise(
        total_titles = sum(total_titles),
        avg_monthly = mean(total_titles),
        max_monthly = max(total_titles)
      ))

# A tsibble: 193 x 5 [1D]
# Key:       type [2]
   type  year_month total_titles avg_monthly max_monthly
   <chr> <date>            <int>       <dbl>       <int>
 1 Movie 2008-01-01            1           1           1
 2 Movie 2009-05-01            1           1           1
 3 Movie 2009-11-01            1           1           1
 4 Movie 2010-11-01            1           1           1
 5 Movie 2011-05-01            1           1           1
 6 Movie 2011-09-01            1           1           1
 7 Movie 2011-10-01           11          11          11
 8 Movie 2012-02-01            1           1           1
 9 Movie 2012-11-01            1           1           1
10 Movie 2012-12-01            1           1           1
# ℹ 183 more rows
…
