Laboratório especial
…
# Roda a função com a aeronave "N407AS" e o dataset 'airports'.
resultado <- analisar_trajeto_completo("N407AS", airports)

# Note que o resultado é dado apenas como um exemplo, para especificar alguma linha aérea específica é só colocar como argumento da função

# Para visualizar os resultados:
print(resultado$tabela_tidy)

# A tibble: 1,234 × 12
   TAIL_NUMBER DATA       DATA_HORA           ORIGIN_AIRPORT DESTINATION_AIRPORT
   <chr>       <date>     <dttm>              <chr>          <chr>              
 1 N407AS      2015-01-01 2015-01-01 06:02:00 SEA            LAS                
 2 N407AS      2015-01-01 2015-01-01 09:01:00 LAS            SEA                
 3 N407AS      2015-01-01 2015-01-01 12:36:00 SEA            ORD                
 4 N407AS      2015-01-01 2015-01-01 19:34:00 ORD            SEA                
 5 N407AS      2015-01-01 2015-01-01 23:54:00 ANC            SEA                
 6 N407AS      2015-01-02 2015-01-02 05:57:00 SEA            ANC                
 7 N407AS      2015-01-02 2015-01-02 10:31:00 ANC            SEA                
 8 N407AS      2015-01-02 2015-01-02 15:50:00 SEA            EWR                
 9 N407AS      2015-01-03 2015-01-03 07:01:00 EWR            SEA                
10 N407AS      2015-01-03 2015-01-03 11:10:00 SEA            LAX                
# ℹ 1,224 more rows
# ℹ 7 more variables: AIRLINE <chr>, FLIGHT_NUMBER <dbl>, DEPARTURE_TIME <chr>,
#   ARRIVAL_TIME <chr>, AIR_TIME <dbl>, DISTANCE <dbl>, VELOCIDADE_MEDIA <dbl>
…
